@startuml

class Address {
  +UUID4 id
  +UUID4 customer_id
  +String street
  +String city
  +String state
  +String zip
  +String country
}

class Customer {
  +UUID4 id
  +String email
  +String name
  +String phone
  +UUID4 default_address_id
}

class Order {
  +UUID4 id
  +UUID4 client_id
  +PaymentMethodEnum payment_method
  +OrderStateEnum order_state
}

class Product {
  +UUID4 id
  +String name
  +String description
  +String image
  +Decimal price
  +boolean available
}

class CustomerAddressAssociation {
  +UUID4 customer_id
  +UUID4 address_id
}

class OrderProductAssociation {
  +UUID4 order_id
  +UUID4 product_id
  +int quantity
}

enum PaymentMethodEnum {
  credit_card
  bank_check_on_delivery
  cash_on_delivery
}

@enduml
```