{
  "openapi": "3.1.0",
  "info": {
    "title": "FastAPI",
    "version": "0.1.0"
  },
  "paths": {
    "/": {
      "get": {
        "summary": "Get Homepage Message",
        "operationId": "get_homepage_message__get",
        "responses": {
          "200": {
            "description": "Successful Response",
            "content": {
              "application/json": {
                "schema": {}
              }
            }
          }
        }
      }
    },
    "/api/customers/": {
      "post": {
        "summary": "Cr\u00e9er un Nouveau Client",
        "description": "Cr\u00e9e un nouveau client avec les adresses fournies et retourne les d\u00e9tails du client cr\u00e9\u00e9.",
        "operationId": "create_customer_api_customers__post",
        "requestBody": {
          "content": {
            "application/json": {
              "schema": {
                "$ref": "#/components/schemas/CustomerCreate"
              }
            }
          },
          "required": true
        },
        "responses": {
          "201": {
            "description": "D\u00e9tails du client cr\u00e9\u00e9",
            "content": {
              "application/json": {
                "schema": {
                  "$ref": "#/components/schemas/CustomerResponse"
                }
              }
            }
          },
          "422": {
            "description": "Validation Error",
            "content": {
              "application/json": {
                "schema": {
                  "$ref": "#/components/schemas/HTTPValidationError"
                }
              }
            }
          }
        }
      }
    },
    "/api/customers/{customer_id}": {
      "put": {
        "summary": "Mettre \u00e0 Jour les Informations d'un Client",
        "description": "Met \u00e0 jour les donn\u00e9es t\u00e9l\u00e9phoniques d'un client sp\u00e9cifi\u00e9 par son ID.",
        "operationId": "update_customer_api_customers__customer_id__put",
        "parameters": [
          {
            "name": "customer_id",
            "in": "path",
            "required": true,
            "schema": {
              "type": "string",
              "format": "uuid",
              "description": "UUID unique du client \u00e0 mettre \u00e0 jour",
              "title": "Customer Id"
            },
            "description": "UUID unique du client \u00e0 mettre \u00e0 jour"
          }
        ],
        "requestBody": {
          "required": true,
          "content": {
            "application/json": {
              "schema": {
                "allOf": [
                  {
                    "$ref": "#/components/schemas/CustomerUpdate"
                  }
                ],
                "description": "Nouvelles donn\u00e9es t\u00e9l\u00e9phoniques \u00e0 appliquer",
                "title": "Update Data"
              }
            }
          }
        },
        "responses": {
          "200": {
            "description": "D\u00e9tails du client mis \u00e0 jour",
            "content": {
              "application/json": {
                "schema": {
                  "$ref": "#/components/schemas/CustomerResponse"
                }
              }
            }
          },
          "422": {
            "description": "Validation Error",
            "content": {
              "application/json": {
                "schema": {
                  "$ref": "#/components/schemas/HTTPValidationError"
                }
              }
            }
          }
        }
      },
      "delete": {
        "summary": "Supprime un Client",
        "description": "Supprime un client de la base de donn\u00e9es en respectant la RGPD.",
        "operationId": "soft_delete_api_customers__customer_id__delete",
        "parameters": [
          {
            "name": "customer_id",
            "in": "path",
            "required": true,
            "schema": {
              "type": "string",
              "format": "uuid",
              "title": "Customer Id"
            }
          }
        ],
        "responses": {
          "204": {
            "description": "Successful Response"
          },
          "422": {
            "description": "Validation Error",
            "content": {
              "application/json": {
                "schema": {
                  "$ref": "#/components/schemas/HTTPValidationError"
                }
              }
            }
          }
        }
      }
    },
    "/customer/{customer_id}/addresses": {
      "get": {
        "summary": "Obtenir les Adresses d'un Client",
        "description": "R\u00e9cup\u00e8re et retourne toutes les adresses associ\u00e9es \u00e0 un client sp\u00e9cifique.",
        "operationId": "get_addresses_of_customer_customer__customer_id__addresses_get",
        "parameters": [
          {
            "name": "customer_id",
            "in": "path",
            "required": true,
            "schema": {
              "type": "string",
              "format": "uuid",
              "title": "Customer Id"
            }
          }
        ],
        "responses": {
          "200": {
            "description": "Liste des adresses du client",
            "content": {
              "application/json": {
                "schema": {
                  "type": "array",
                  "items": {
                    "$ref": "#/components/schemas/AddressResponse"
                  },
                  "title": "Response Get Addresses Of Customer Customer  Customer Id  Addresses Get"
                }
              }
            }
          },
          "422": {
            "description": "Validation Error",
            "content": {
              "application/json": {
                "schema": {
                  "$ref": "#/components/schemas/HTTPValidationError"
                }
              }
            }
          }
        }
      }
    },
    "/customer/{customer_id}/address/{address_id}": {
      "put": {
        "summary": "Associer une Adresse \u00e0 un Client",
        "description": "Associe une adresse existante \u00e0 un client sp\u00e9cifi\u00e9 par leur ID.",
        "operationId": "associate_address_to_customer_customer__customer_id__address__address_id__put",
        "parameters": [
          {
            "name": "customer_id",
            "in": "path",
            "required": true,
            "schema": {
              "type": "string",
              "format": "uuid",
              "description": "UUID du client",
              "title": "Customer Id"
            },
            "description": "UUID du client"
          },
          {
            "name": "address_id",
            "in": "path",
            "required": true,
            "schema": {
              "type": "string",
              "format": "uuid",
              "description": "UUID de l'adresse",
              "title": "Address Id"
            },
            "description": "UUID de l'adresse"
          }
        ],
        "responses": {
          "200": {
            "description": "Confirmation de l'association d'adresse",
            "content": {
              "application/json": {
                "schema": {}
              }
            }
          },
          "422": {
            "description": "Validation Error",
            "content": {
              "application/json": {
                "schema": {
                  "$ref": "#/components/schemas/HTTPValidationError"
                }
              }
            }
          }
        }
      }
    },
    "/products/": {
      "get": {
        "summary": "Liste des Produits",
        "description": "Retourne une liste de tous les produits actifs.",
        "operationId": "list_products_products__get",
        "responses": {
          "200": {
            "description": "Successful Response",
            "content": {
              "application/json": {
                "schema": {
                  "items": {
                    "$ref": "#/components/schemas/ProductResponse"
                  },
                  "type": "array",
                  "title": "Response List Products Products  Get"
                }
              }
            }
          }
        }
      },
      "post": {
        "summary": "Cr\u00e9e un Nouveau Produit",
        "description": "Cr\u00e9e un nouveau produit dans la base de donn\u00e9es et retourne ses d\u00e9tails.",
        "operationId": "create_product_products__post",
        "requestBody": {
          "content": {
            "application/json": {
              "schema": {
                "$ref": "#/components/schemas/ProductCreate"
              }
            }
          },
          "required": true
        },
        "responses": {
          "201": {
            "description": "Successful Response",
            "content": {
              "application/json": {
                "schema": {
                  "$ref": "#/components/schemas/ProductResponse"
                }
              }
            }
          },
          "422": {
            "description": "Validation Error",
            "content": {
              "application/json": {
                "schema": {
                  "$ref": "#/components/schemas/HTTPValidationError"
                }
              }
            }
          }
        }
      }
    },
    "/products/{product_id}": {
      "get": {
        "summary": "D\u00e9tails d'un Produit",
        "description": "Retourne les d\u00e9tails d'un produit sp\u00e9cifique. Si le produit est inactif ou n'existe pas, une erreur 404 est retourn\u00e9e.",
        "operationId": "get_product_products__product_id__get",
        "parameters": [
          {
            "name": "product_id",
            "in": "path",
            "required": true,
            "schema": {
              "type": "string",
              "title": "Product Id"
            }
          }
        ],
        "responses": {
          "200": {
            "description": "Successful Response",
            "content": {
              "application/json": {
                "schema": {
                  "$ref": "#/components/schemas/ProductResponse"
                }
              }
            }
          },
          "422": {
            "description": "Validation Error",
            "content": {
              "application/json": {
                "schema": {
                  "$ref": "#/components/schemas/HTTPValidationError"
                }
              }
            }
          }
        }
      },
      "delete": {
        "summary": "Supprime un Produit",
        "description": "Marque un produit comme inactif et enregistre la date de suppression. Le produit n'est plus disponible mais reste dans la base de donn\u00e9es.",
        "operationId": "soft_delete_product_products__product_id__delete",
        "parameters": [
          {
            "name": "product_id",
            "in": "path",
            "required": true,
            "schema": {
              "type": "string",
              "title": "Product Id"
            }
          }
        ],
        "responses": {
          "204": {
            "description": "Successful Response"
          },
          "422": {
            "description": "Validation Error",
            "content": {
              "application/json": {
                "schema": {
                  "$ref": "#/components/schemas/HTTPValidationError"
                }
              }
            }
          }
        }
      }
    },
    "/order": {
      "put": {
        "summary": "Cr\u00e9er une Nouvelle Commande",
        "description": "Cr\u00e9e une nouvelle commande avec un \u00e9tat initial 'basket' et retourne son ID.",
        "operationId": "create_order_order_put",
        "responses": {
          "201": {
            "description": "ID de la commande cr\u00e9\u00e9e",
            "content": {
              "application/json": {
                "schema": {}
              }
            }
          }
        }
      }
    },
    "/order/{order_id}/{product_id}/{quantity}": {
      "put": {
        "summary": "Ajouter un Produit \u00e0 une Commande",
        "description": "Ajoute un certain nombre d'un produit sp\u00e9cifique \u00e0 une commande sp\u00e9cifique.",
        "operationId": "add_product_to_order_order__order_id___product_id___quantity__put",
        "parameters": [
          {
            "name": "order_id",
            "in": "path",
            "required": true,
            "schema": {
              "type": "string",
              "format": "uuid",
              "description": "L'identifiant unique de la commande",
              "title": "Order Id"
            },
            "description": "L'identifiant unique de la commande"
          },
          {
            "name": "product_id",
            "in": "path",
            "required": true,
            "schema": {
              "type": "string",
              "format": "uuid",
              "description": "L'identifiant unique du produit",
              "title": "Product Id"
            },
            "description": "L'identifiant unique du produit"
          },
          {
            "name": "quantity",
            "in": "path",
            "required": true,
            "schema": {
              "type": "integer",
              "description": "La quantit\u00e9 du produit \u00e0 ajouter \u00e0 la commande",
              "title": "Quantity"
            },
            "description": "La quantit\u00e9 du produit \u00e0 ajouter \u00e0 la commande"
          }
        ],
        "responses": {
          "200": {
            "description": "Confirmation de l'ajout du produit \u00e0 la commande",
            "content": {
              "application/json": {
                "schema": {}
              }
            }
          },
          "422": {
            "description": "Validation Error",
            "content": {
              "application/json": {
                "schema": {
                  "$ref": "#/components/schemas/HTTPValidationError"
                }
              }
            }
          }
        }
      }
    },
    "/orders": {
      "get": {
        "summary": "Get All Orders",
        "operationId": "get_all_orders_orders_get",
        "responses": {
          "200": {
            "description": "Successful Response",
            "content": {
              "application/json": {
                "schema": {
                  "items": {
                    "$ref": "#/components/schemas/OrderResponse"
                  },
                  "type": "array",
                  "title": "Response Get All Orders Orders Get"
                }
              }
            }
          }
        }
      }
    },
    "/order/{order_id}/delivery/{address_id}": {
      "put": {
        "summary": "Associer une Adresse de Livraison \u00e0 une Commande",
        "description": "Associe une adresse de livraison \u00e0 une commande. Si un client est associ\u00e9 \u00e0 la commande et que l'adresse n'appartient pas au client, renvoie une erreur 400.",
        "operationId": "assign_delivery_address_to_order_order__order_id__delivery__address_id__put",
        "parameters": [
          {
            "name": "order_id",
            "in": "path",
            "required": true,
            "schema": {
              "type": "string",
              "format": "uuid",
              "description": "L'identifiant unique de la commande",
              "title": "Order Id"
            },
            "description": "L'identifiant unique de la commande"
          },
          {
            "name": "address_id",
            "in": "path",
            "required": true,
            "schema": {
              "type": "string",
              "format": "uuid",
              "description": "L'identifiant unique de la commande",
              "title": "Address Id"
            },
            "description": "L'identifiant unique de la commande"
          }
        ],
        "responses": {
          "200": {
            "description": "Confirmation de l'association de l'adresse.",
            "content": {
              "application/json": {
                "schema": {}
              }
            }
          },
          "422": {
            "description": "Validation Error",
            "content": {
              "application/json": {
                "schema": {
                  "$ref": "#/components/schemas/HTTPValidationError"
                }
              }
            }
          }
        }
      }
    },
    "/address": {
      "post": {
        "summary": "Create Address",
        "description": "Cr\u00e9e une nouvelle adresse ou retourne l'ID si elle existe d\u00e9j\u00e0.\n\n- **address_data**: Le corps de la requ\u00eate contenant les d\u00e9tails de l'adresse.\n- **Retourne**: L'objet AddressResponse de l'adresse cr\u00e9\u00e9e ou existante.",
        "operationId": "create_address_address_post",
        "requestBody": {
          "content": {
            "application/json": {
              "schema": {
                "$ref": "#/components/schemas/AddressCreate"
              }
            }
          },
          "required": true
        },
        "responses": {
          "201": {
            "description": "Successful Response",
            "content": {
              "application/json": {
                "schema": {
                  "$ref": "#/components/schemas/AddressResponse"
                }
              }
            }
          },
          "422": {
            "description": "Validation Error",
            "content": {
              "application/json": {
                "schema": {
                  "$ref": "#/components/schemas/HTTPValidationError"
                }
              }
            }
          }
        }
      }
    }
  },
  "components": {
    "schemas": {
      "AddressBase": {
        "properties": {
          "street": {
            "type": "string",
            "title": "Street"
          },
          "city": {
            "type": "string",
            "title": "City"
          },
          "state": {
            "type": "string",
            "title": "State"
          },
          "zipcode": {
            "type": "string",
            "title": "Zipcode"
          },
          "country": {
            "type": "string",
            "title": "Country"
          }
        },
        "type": "object",
        "required": [
          "street",
          "city",
          "state",
          "zipcode",
          "country"
        ],
        "title": "AddressBase",
        "description": "Classe de base pour une adresse.\n\nAttributs:\n    street: Rue de l'adresse.\n    city: Ville de l'adresse.\n    state: \u00c9tat ou r\u00e9gion de l'adresse.\n    zipcode: Code postal de l'adresse.\n    country: Pays de l'adresse."
      },
      "AddressCreate": {
        "properties": {
          "street": {
            "type": "string",
            "title": "Street"
          },
          "city": {
            "type": "string",
            "title": "City"
          },
          "state": {
            "type": "string",
            "title": "State"
          },
          "zipcode": {
            "type": "string",
            "title": "Zipcode"
          },
          "country": {
            "type": "string",
            "title": "Country"
          }
        },
        "type": "object",
        "required": [
          "street",
          "city",
          "state",
          "zipcode",
          "country"
        ],
        "title": "AddressCreate",
        "description": "Classe pour la cr\u00e9ation d'une nouvelle adresse."
      },
      "AddressResponse": {
        "properties": {
          "street": {
            "type": "string",
            "title": "Street"
          },
          "city": {
            "type": "string",
            "title": "City"
          },
          "state": {
            "type": "string",
            "title": "State"
          },
          "zipcode": {
            "type": "string",
            "title": "Zipcode"
          },
          "country": {
            "type": "string",
            "title": "Country"
          },
          "id": {
            "type": "string",
            "format": "uuid4",
            "title": "Id"
          }
        },
        "type": "object",
        "required": [
          "street",
          "city",
          "state",
          "zipcode",
          "country",
          "id"
        ],
        "title": "AddressResponse",
        "description": "Classe pour la r\u00e9ponse d'une adresse.\nH\u00e9rite de AddressBase et inclut l'identifiant unique de l'adresse."
      },
      "CustomerCreate": {
        "properties": {
          "email": {
            "anyOf": [
              {
                "type": "string",
                "format": "email"
              },
              {
                "type": "null"
              }
            ],
            "title": "Email"
          },
          "name": {
            "anyOf": [
              {
                "type": "string"
              },
              {
                "type": "null"
              }
            ],
            "title": "Name"
          },
          "phone": {
            "anyOf": [
              {
                "type": "string"
              },
              {
                "type": "null"
              }
            ],
            "title": "Phone"
          },
          "default_address_id": {
            "anyOf": [
              {
                "type": "string",
                "format": "uuid4"
              },
              {
                "type": "null"
              }
            ],
            "title": "Default Address Id"
          },
          "addresses": {
            "anyOf": [
              {
                "items": {
                  "$ref": "#/components/schemas/AddressCreate"
                },
                "type": "array"
              },
              {
                "type": "null"
              }
            ],
            "title": "Addresses",
            "default": []
          }
        },
        "type": "object",
        "required": [
          "email",
          "name",
          "phone",
          "default_address_id"
        ],
        "title": "CustomerCreate",
        "description": "Classe pour la cr\u00e9ation d'un nouveau client.\n\nH\u00e9rite de CustomerBase, utilis\u00e9e pour cr\u00e9er de nouveaux clients."
      },
      "CustomerResponse": {
        "properties": {
          "email": {
            "anyOf": [
              {
                "type": "string",
                "format": "email"
              },
              {
                "type": "null"
              }
            ],
            "title": "Email"
          },
          "name": {
            "anyOf": [
              {
                "type": "string"
              },
              {
                "type": "null"
              }
            ],
            "title": "Name"
          },
          "phone": {
            "anyOf": [
              {
                "type": "string"
              },
              {
                "type": "null"
              }
            ],
            "title": "Phone"
          },
          "default_address_id": {
            "anyOf": [
              {
                "type": "string",
                "format": "uuid4"
              },
              {
                "type": "null"
              }
            ],
            "title": "Default Address Id"
          },
          "addresses": {
            "anyOf": [
              {
                "items": {
                  "$ref": "#/components/schemas/AddressBase"
                },
                "type": "array"
              },
              {
                "type": "null"
              }
            ],
            "title": "Addresses",
            "default": []
          },
          "id": {
            "type": "string",
            "format": "uuid4",
            "title": "Id"
          }
        },
        "type": "object",
        "required": [
          "email",
          "name",
          "phone",
          "default_address_id",
          "id"
        ],
        "title": "CustomerResponse",
        "description": "Classe pour la r\u00e9ponse d'un client.\n\nH\u00e9rite de CustomerBase, utilis\u00e9e pour la r\u00e9ponse d'un client."
      },
      "CustomerUpdate": {
        "properties": {
          "phone": {
            "type": "string",
            "title": "Phone"
          }
        },
        "type": "object",
        "required": [
          "phone"
        ],
        "title": "CustomerUpdate"
      },
      "HTTPValidationError": {
        "properties": {
          "detail": {
            "items": {
              "$ref": "#/components/schemas/ValidationError"
            },
            "type": "array",
            "title": "Detail"
          }
        },
        "type": "object",
        "title": "HTTPValidationError"
      },
      "OrderResponse": {
        "properties": {
          "customer_id": {
            "anyOf": [
              {
                "type": "string",
                "format": "uuid4"
              },
              {
                "type": "null"
              }
            ],
            "title": "Customer Id"
          },
          "order_date": {
            "type": "string",
            "format": "date-time",
            "title": "Order Date",
            "default": "2023-12-18T07:35:37.888072"
          },
          "delivery_address_id": {
            "anyOf": [
              {
                "type": "string",
                "format": "uuid4"
              },
              {
                "type": "null"
              }
            ],
            "title": "Delivery Address Id"
          },
          "billing_address_id": {
            "anyOf": [
              {
                "type": "string",
                "format": "uuid4"
              },
              {
                "type": "null"
              }
            ],
            "title": "Billing Address Id"
          },
          "payment_method": {
            "anyOf": [
              {
                "type": "string"
              },
              {
                "type": "null"
              }
            ],
            "title": "Payment Method"
          },
          "status": {
            "allOf": [
              {
                "$ref": "#/components/schemas/OrderStateEnum"
              }
            ],
            "default": "basket"
          },
          "id": {
            "type": "string",
            "format": "uuid4",
            "title": "Id"
          },
          "order_lines": {
            "items": {
              "$ref": "#/components/schemas/ProductInOrderLine"
            },
            "type": "array",
            "title": "Order Lines"
          }
        },
        "type": "object",
        "required": [
          "id",
          "order_lines"
        ],
        "title": "OrderResponse"
      },
      "OrderStateEnum": {
        "type": "string",
        "enum": [
          "basket",
          "validated",
          "sent",
          "delivered",
          "cancelled"
        ],
        "title": "OrderStateEnum"
      },
      "ProductCreate": {
        "properties": {
          "name": {
            "type": "string",
            "title": "Name"
          },
          "description": {
            "type": "string",
            "title": "Description"
          },
          "image": {
            "type": "string",
            "title": "Image"
          },
          "price": {
            "type": "number",
            "title": "Price"
          },
          "available": {
            "type": "boolean",
            "title": "Available"
          },
          "id": {
            "anyOf": [
              {
                "type": "string",
                "format": "uuid4"
              },
              {
                "type": "null"
              }
            ],
            "title": "Id"
          }
        },
        "type": "object",
        "required": [
          "name",
          "description",
          "image",
          "price",
          "available"
        ],
        "title": "ProductCreate",
        "description": "Classe pour la cr\u00e9ation d'un nouveau produit.\nH\u00e9rite de ProductBase, utilis\u00e9e pour cr\u00e9er de nouveaux produits."
      },
      "ProductInOrderLine": {
        "properties": {
          "product_id": {
            "type": "string",
            "format": "uuid4",
            "title": "Product Id"
          },
          "quantity": {
            "type": "integer",
            "title": "Quantity"
          }
        },
        "type": "object",
        "required": [
          "product_id",
          "quantity"
        ],
        "title": "ProductInOrderLine"
      },
      "ProductResponse": {
        "properties": {
          "name": {
            "type": "string",
            "title": "Name"
          },
          "description": {
            "type": "string",
            "title": "Description"
          },
          "image": {
            "type": "string",
            "title": "Image"
          },
          "price": {
            "type": "number",
            "title": "Price"
          },
          "available": {
            "type": "boolean",
            "title": "Available"
          }
        },
        "type": "object",
        "required": [
          "name",
          "description",
          "image",
          "price",
          "available"
        ],
        "title": "ProductResponse",
        "description": "Classe pour la r\u00e9ponse d'un produit.\n\nH\u00e9rite de ProductBase, utilis\u00e9e pour la r\u00e9ponse d'un produit."
      },
      "ValidationError": {
        "properties": {
          "loc": {
            "items": {
              "anyOf": [
                {
                  "type": "string"
                },
                {
                  "type": "integer"
                }
              ]
            },
            "type": "array",
            "title": "Location"
          },
          "msg": {
            "type": "string",
            "title": "Message"
          },
          "type": {
            "type": "string",
            "title": "Error Type"
          }
        },
        "type": "object",
        "required": [
          "loc",
          "msg",
          "type"
        ],
        "title": "ValidationError"
      }
    }
  }
}